Unit09HW
…
Liner Correlation coefficient: r (the sample linear correlation coefficient) estimates  (the population linear correlation coefficient) ** r estimates 

Interpreting r: r^2 - The value is the proporation of the variation in y that is explained by the linear relationship between x and y

Provide a confidence interval for each slope (from each state). Provide a sentence that interprets each slope (for each state) but this time include the confidence interval in your interpretation. See the Unit 9 6371 slides for an example of how to write the interpretation of the confidence interval. If you are not in 6371 and have not had it, ask a friend in the class to see the slides and discuss how to move forward. In short, the confidence interval contains the plausible values of the parameter (the slope in this case) given the data you observed. Given this new information, answer this question: Is there significant evidence that he relationship between ABV and IBU is significantly different for Texas and Colorado beers? This question is less subjective now and has a clear answer based on the plausible values for the parameters. E. Compare two competing models: External Cross Validation

Using the beerCOTX dataframe, add a column to the data that is the square of the IBU column. Call it IBU2. Print the head of the dataframe with the new column.

beerCOTX$IBU2 <- beerCOTX$IBU
beerCOTX %>% as_tibble() %>% mutate(
  IBU2 = IBU*IBU #Square of IBU
)

## # A tibble: 235 x 11
##    Brewery_ID Beer_Name Beer_ID   ABV   IBU Style Ounces Brewery_Name City 
##         <int> <chr>       <int> <dbl> <int> <chr>  <dbl> <chr>        <chr>
##  1         67 Yo Soy U    2520 0.044     5 Berl     12 Freetail Br San 
##  2        129 18th Ann    2370 0.044     5 Gose      12 Real Ale Br Blan
##  3        392 Agave Wh    1522 0.042     9 Amer     12 Breckenridg Denv
##  4         38 White Ra     108 0.056    10 Witb     12 Avery Brewi Boul
##  5         67 Rye Wit      2522 0.042    10 Witb     12 Freetail Br San 
##  6        188 Lobo Lito    2238 0.04     12 Ligh     12 Pedernales  Fred
##  7        216 Broken B    2117 0.056    12 Dunk     12 Texian Brew Rich
##  8        497 Dry Dock     872 0.043    12 Hefe     12 Dry Dock Br Auro
##  9        136 Morning     2360 0.059    14 Amer     12 Pug Ryan's  Dill
## 10        136 Morning      130 0.059    14 Amer     12 Pug Ryan's  Dill
## # ... with 225 more rows, and 2 more variables: State <chr>, IBU2 <int>
…
