…
```r
colnames(statesize) <- c("State Name", "SqMiles", "State", "Region")
statesize <- subset.data.frame(statesize, !(State %in% Excluded_States))
statesize
```

```
## # A tibble: 48 x 4
##    `State Name` SqMiles State Region   
##    <chr>          <int> <chr> <chr>    
##  1 Alabama        50750 AL    South    
##  2 Arizona       113642 AZ    West     
##  3 Arkansas       52075 AR    South    
##  4 California    155973 CA    West     
##  5 Colorado      103730 CO    West     
##  6 Connecticut     4845 CT    Northeast
##  7 Delaware        1955 DE    South    
##  8 Florida        53997 FL    South    
##  9 Georgia        57919 GA    South    
## 10 Idaho          82751 ID    West     
## # ... with 38 more rows
```
…
